…
``` r
library(dplyr)
tobacco %>%
    group_by(state) %>%
    summarize(avincome=mean(income))
```

    ## # A tibble: 48 x 2
    ##     state  avincome
    ##    <fctr>     <dbl>
    ##  1     AL  64137227
    ##  2     AR  35031507
    ##  3     AZ  64086970
    ##  4     CA 623427174
    ##  5     CO  67137756
    ##  6     CT  84549187
    ##  7     DE  14187419
    ##  8     FL 249924961
    ##  9     GA 116220735
    ## 10     IA  48131054
    ## # ... with 38 more rows

The only strange element is the pipe operator `%>%` which, in essence,
passes the output of the LHS as input to the RHS. With that we allow the
code to be read from left to right. Compare it to the more standard way
of writing the same code:

``` r
summarize(group_by(tobacco, state), avincome=mean(income))
```

    ## # A tibble: 48 x 2
    ##     state  avincome
    ##    <fctr>     <dbl>
    ##  1     AL  64137227
    ##  2     AR  35031507
    ##  3     AZ  64086970
    ##  4     CA 623427174
    ##  5     CO  67137756
    ##  6     CT  84549187
    ##  7     DE  14187419
    ##  8     FL 249924961
    ##  9     GA 116220735
    ## 10     IA  48131054
    ## # ... with 38 more rows
…
